{
	"info": {
		"_postman_id": "5e1fe996-4d95-407d-aaae-097b94611a89",
		"name": "honeynode_init",
		"schema": "https://schema.getpostman.com/json/collection/v2.1.0/collection.json"
	},
	"item": [
		{
			"name": "Connect honey XPDR-A1",
			"request": {
				"method": "PUT",
				"header": [
					{
						"key": "Content-Type",
						"value": "application/json"
					},
					{
						"key": "Authorization",
						"value": "Basic YWRtaW46YWRtaW4="
					}
				],
				"body": {
					"mode": "raw",
					"raw": "{\n    \"node\": [\n        {\n            \"node-id\": \"XPDR-A1\",\n    \t\t\"netconf-node-topology:tcp-only\": \"false\",\n    \t\t\"netconf-node-topology:reconnect-on-changed-schema\": \"false\",\n    \t\t\"netconf-node-topology:host\": \"127.0.0.1\",\n    \t\t\"netconf-node-topology:default-request-timeout-millis\": \"60000\",\n    \t\t\"netconf-node-topology:max-connection-attempts\": \"0\",\n\t\t\t\"netconf-node-topology:sleep-factor\": \"1.5\",\n    \t\t\"netconf-node-topology:actor-response-wait-time\": \"5\",\n    \t\t\"netconf-node-topology:concurrent-rpc-limit\": \"0\",\n    \t\t\"netconf-node-topology:between-attempts-timeout-millis\": \"2000\",\n    \t\t\"netconf-node-topology:port\": \"17840\",\n    \t\t\"netconf-node-topology:connection-timeout-millis\": \"20000\",\n    \t\t\"netconf-node-topology:username\": \"admin\",\n    \t\t\"netconf-node-topology:password\": \"admin\",\n    \t\t\"netconf-node-topology:keepalive-delay\": \"120\"\n        }\n    ]\n}"
				},
				"url": {
					"raw": "http://127.0.0.1:8181/restconf/config/network-topology:network-topology/topology/topology-netconf/node/XPDR-A1",
					"protocol": "http",
					"host": [
						"127",
						"0",
						"0",
						"1"
					],
					"port": "8181",
					"path": [
						"restconf",
						"config",
						"network-topology:network-topology",
						"topology",
						"topology-netconf",
						"node",
						"XPDR-A1"
					]
				},
				"description": "127.0.0.1:17831"
			},
			"response": []
		},
		{
			"name": "Connect honey ROADM-A1",
			"request": {
				"method": "PUT",
				"header": [
					{
						"key": "Content-Type",
						"value": "application/json"
					},
					{
						"key": "Authorization",
						"value": "Basic YWRtaW46YWRtaW4="
					}
				],
				"body": {
					"mode": "raw",
					"raw": "{\n    \"node\": [\n        {\n            \"node-id\": \"ROADM-A1\",\n    \t\t\"netconf-node-topology:tcp-only\": \"false\",\n    \t\t\"netconf-node-topology:reconnect-on-changed-schema\": \"false\",\n    \t\t\"netconf-node-topology:host\": \"127.0.0.1\",\n    \t\t\"netconf-node-topology:default-request-timeout-millis\": \"60000\",\n    \t\t\"netconf-node-topology:max-connection-attempts\": \"0\",\n\t\t\t\"netconf-node-topology:sleep-factor\": \"1.5\",\n    \t\t\"netconf-node-topology:actor-response-wait-time\": \"5\",\n    \t\t\"netconf-node-topology:concurrent-rpc-limit\": \"0\",\n    \t\t\"netconf-node-topology:between-attempts-timeout-millis\": \"2000\",\n    \t\t\"netconf-node-topology:port\": \"17841\",\n    \t\t\"netconf-node-topology:connection-timeout-millis\": \"20000\",\n    \t\t\"netconf-node-topology:username\": \"admin\",\n    \t\t\"netconf-node-topology:password\": \"admin\",\n    \t\t\"netconf-node-topology:keepalive-delay\": \"120\"\n        }\n    ]\n}"
				},
				"url": {
					"raw": "http://127.0.0.1:8181/restconf/config/network-topology:network-topology/topology/topology-netconf/node/ROADM-A1",
					"protocol": "http",
					"host": [
						"127",
						"0",
						"0",
						"1"
					],
					"port": "8181",
					"path": [
						"restconf",
						"config",
						"network-topology:network-topology",
						"topology",
						"topology-netconf",
						"node",
						"ROADM-A1"
					]
				},
				"description": "127.0.0.1:17831"
			},
			"response": []
		},
		{
			"name": "Connect honey ROADM-C1",
			"request": {
				"method": "PUT",
				"header": [
					{
						"key": "Content-Type",
						"value": "application/json"
					},
					{
						"key": "Authorization",
						"value": "Basic YWRtaW46YWRtaW4="
					}
				],
				"body": {
					"mode": "raw",
					"raw": "{\n    \"node\": [\n        {\n            \"node-id\": \"ROADM-C1\",\n    \t\t\"netconf-node-topology:tcp-only\": \"false\",\n    \t\t\"netconf-node-topology:reconnect-on-changed-schema\": \"false\",\n    \t\t\"netconf-node-topology:host\": \"127.0.0.1\",\n    \t\t\"netconf-node-topology:default-request-timeout-millis\": \"60000\",\n    \t\t\"netconf-node-topology:max-connection-attempts\": \"0\",\n\t\t\t\"netconf-node-topology:sleep-factor\": \"1.5\",\n    \t\t\"netconf-node-topology:actor-response-wait-time\": \"5\",\n    \t\t\"netconf-node-topology:concurrent-rpc-limit\": \"0\",\n    \t\t\"netconf-node-topology:between-attempts-timeout-millis\": \"2000\",\n    \t\t\"netconf-node-topology:port\": \"17843\",\n    \t\t\"netconf-node-topology:connection-timeout-millis\": \"20000\",\n    \t\t\"netconf-node-topology:username\": \"admin\",\n    \t\t\"netconf-node-topology:password\": \"admin\",\n    \t\t\"netconf-node-topology:keepalive-delay\": \"120\"\n        }\n    ]\n}"
				},
				"url": {
					"raw": "http://127.0.0.1:8181/restconf/config/network-topology:network-topology/topology/topology-netconf/node/ROADM-C1",
					"protocol": "http",
					"host": [
						"127",
						"0",
						"0",
						"1"
					],
					"port": "8181",
					"path": [
						"restconf",
						"config",
						"network-topology:network-topology",
						"topology",
						"topology-netconf",
						"node",
						"ROADM-C1"
					]
				},
				"description": "127.0.0.1:17831"
			},
			"response": []
		},
		{
			"name": "Connect honey ROADM-B1",
			"request": {
				"method": "PUT",
				"header": [
					{
						"key": "Content-Type",
						"value": "application/json"
					},
					{
						"key": "Authorization",
						"value": "Basic YWRtaW46YWRtaW4="
					}
				],
				"body": {
					"mode": "raw",
					"raw": "{\n    \"node\": [\n        {\n            \"node-id\": \"ROADM-B1\",\n    \t\t\"netconf-node-topology:tcp-only\": \"false\",\n    \t\t\"netconf-node-topology:reconnect-on-changed-schema\": \"false\",\n    \t\t\"netconf-node-topology:host\": \"127.0.0.1\",\n    \t\t\"netconf-node-topology:default-request-timeout-millis\": \"60000\",\n    \t\t\"netconf-node-topology:max-connection-attempts\": \"0\",\n\t\t\t\"netconf-node-topology:sleep-factor\": \"1.5\",\n    \t\t\"netconf-node-topology:actor-response-wait-time\": \"5\",\n    \t\t\"netconf-node-topology:concurrent-rpc-limit\": \"0\",\n    \t\t\"netconf-node-topology:between-attempts-timeout-millis\": \"2000\",\n    \t\t\"netconf-node-topology:port\": \"17842\",\n    \t\t\"netconf-node-topology:connection-timeout-millis\": \"20000\",\n    \t\t\"netconf-node-topology:username\": \"admin\",\n    \t\t\"netconf-node-topology:password\": \"admin\",\n    \t\t\"netconf-node-topology:keepalive-delay\": \"120\"\n        }\n    ]\n}"
				},
				"url": {
					"raw": "http://127.0.0.1:8181/restconf/config/network-topology:network-topology/topology/topology-netconf/node/ROADM-B1",
					"protocol": "http",
					"host": [
						"127",
						"0",
						"0",
						"1"
					],
					"port": "8181",
					"path": [
						"restconf",
						"config",
						"network-topology:network-topology",
						"topology",
						"topology-netconf",
						"node",
						"ROADM-B1"
					]
				},
				"description": "127.0.0.1:17831"
			},
			"response": []
		},
		{
			"name": "Connect honey XPDR-C1",
			"request": {
				"method": "PUT",
				"header": [
					{
						"key": "Content-Type",
						"value": "application/json"
					},
					{
						"key": "Authorization",
						"value": "Basic YWRtaW46YWRtaW4="
					}
				],
				"body": {
					"mode": "raw",
					"raw": "{\n    \"node\": [\n        {\n            \"node-id\": \"XPDR-C1\",\n    \t\t\"netconf-node-topology:tcp-only\": \"false\",\n    \t\t\"netconf-node-topology:reconnect-on-changed-schema\": \"false\",\n    \t\t\"netconf-node-topology:host\": \"127.0.0.1\",\n    \t\t\"netconf-node-topology:default-request-timeout-millis\": \"60000\",\n    \t\t\"netconf-node-topology:max-connection-attempts\": \"0\",\n\t\t\t\"netconf-node-topology:sleep-factor\": \"1.5\",\n    \t\t\"netconf-node-topology:actor-response-wait-time\": \"5\",\n    \t\t\"netconf-node-topology:concurrent-rpc-limit\": \"0\",\n    \t\t\"netconf-node-topology:between-attempts-timeout-millis\": \"2000\",\n    \t\t\"netconf-node-topology:port\": \"17844\",\n    \t\t\"netconf-node-topology:connection-timeout-millis\": \"20000\",\n    \t\t\"netconf-node-topology:username\": \"admin\",\n    \t\t\"netconf-node-topology:password\": \"admin\",\n    \t\t\"netconf-node-topology:keepalive-delay\": \"120\"\n        }\n    ]\n}"
				},
				"url": {
					"raw": "http://127.0.0.1:8181/restconf/config/network-topology:network-topology/topology/topology-netconf/node/XPDR-C1",
					"protocol": "http",
					"host": [
						"127",
						"0",
						"0",
						"1"
					],
					"port": "8181",
					"path": [
						"restconf",
						"config",
						"network-topology:network-topology",
						"topology",
						"topology-netconf",
						"node",
						"XPDR-C1"
					]
				},
				"description": "127.0.0.1:17831"
			},
			"response": []
		},
		{
			"name": "Connect honey SPDRA-SA1",
			"request": {
				"method": "PUT",
				"header": [
					{
						"key": "Content-Type",
						"value": "application/json"
					},
					{
						"key": "Authorization",
						"value": "Basic YWRtaW46YWRtaW4="
					}
				],
				"body": {
					"mode": "raw",
					"raw": "{\n    \"node\": [\n        {\n            \"node-id\": \"SPDRA-SA1\",\n    \t\t\"netconf-node-topology:tcp-only\": \"false\",\n    \t\t\"netconf-node-topology:reconnect-on-changed-schema\": \"false\",\n    \t\t\"netconf-node-topology:host\": \"127.0.0.1\",\n    \t\t\"netconf-node-topology:default-request-timeout-millis\": \"60000\",\n    \t\t\"netconf-node-topology:max-connection-attempts\": \"0\",\n\t\t\t\"netconf-node-topology:sleep-factor\": \"1.5\",\n    \t\t\"netconf-node-topology:actor-response-wait-time\": \"5\",\n    \t\t\"netconf-node-topology:concurrent-rpc-limit\": \"0\",\n    \t\t\"netconf-node-topology:between-attempts-timeout-millis\": \"2000\",\n    \t\t\"netconf-node-topology:port\": \"17845\",\n    \t\t\"netconf-node-topology:connection-timeout-millis\": \"20000\",\n    \t\t\"netconf-node-topology:username\": \"admin\",\n    \t\t\"netconf-node-topology:password\": \"admin\",\n    \t\t\"netconf-node-topology:keepalive-delay\": \"120\"\n        }\n    ]\n}"
				},
				"url": {
					"raw": "http://127.0.0.1:8181/restconf/config/network-topology:network-topology/topology/topology-netconf/node/SPDRA-SA1",
					"protocol": "http",
					"host": [
						"127",
						"0",
						"0",
						"1"
					],
					"port": "8181",
					"path": [
						"restconf",
						"config",
						"network-topology:network-topology",
						"topology",
						"topology-netconf",
						"node",
						"SPDRA-SA1"
					]
				},
				"description": "127.0.0.1:17831"
			},
			"response": []
		},
		{
			"name": "Connect honey SPDRC-SC1",
			"request": {
				"method": "PUT",
				"header": [
					{
						"key": "Content-Type",
						"value": "application/json"
					},
					{
						"key": "Authorization",
						"value": "Basic YWRtaW46YWRtaW4="
					}
				],
				"body": {
					"mode": "raw",
					"raw": "{\n    \"node\": [\n        {\n            \"node-id\": \"SPDRC-SC1\",\n    \t\t\"netconf-node-topology:tcp-only\": \"false\",\n    \t\t\"netconf-node-topology:reconnect-on-changed-schema\": \"false\",\n    \t\t\"netconf-node-topology:host\": \"127.0.0.1\",\n    \t\t\"netconf-node-topology:default-request-timeout-millis\": \"60000\",\n    \t\t\"netconf-node-topology:max-connection-attempts\": \"0\",\n\t\t\t\"netconf-node-topology:sleep-factor\": \"1.5\",\n    \t\t\"netconf-node-topology:actor-response-wait-time\": \"5\",\n    \t\t\"netconf-node-topology:concurrent-rpc-limit\": \"0\",\n    \t\t\"netconf-node-topology:between-attempts-timeout-millis\": \"2000\",\n    \t\t\"netconf-node-topology:port\": \"17846\",\n    \t\t\"netconf-node-topology:connection-timeout-millis\": \"20000\",\n    \t\t\"netconf-node-topology:username\": \"admin\",\n    \t\t\"netconf-node-topology:password\": \"admin\",\n    \t\t\"netconf-node-topology:keepalive-delay\": \"120\"\n        }\n    ]\n}"
				},
				"url": {
					"raw": "http://127.0.0.1:8181/restconf/config/network-topology:network-topology/topology/topology-netconf/node/SPDRC-SC1",
					"protocol": "http",
					"host": [
						"127",
						"0",
						"0",
						"1"
					],
					"port": "8181",
					"path": [
						"restconf",
						"config",
						"network-topology:network-topology",
						"topology",
						"topology-netconf",
						"node",
						"SPDRC-SC1"
					]
				},
				"description": "127.0.0.1:17831"
			},
			"response": []
		},
		{
			"name": "XPDRA01 to ROADMA1",
			"request": {
				"auth": {
					"type": "basic",
					"basic": [
						{
							"key": "password",
							"value": "admin",
							"type": "string"
						},
						{
							"key": "username",
							"value": "admin",
							"type": "string"
						}
					]
				},
				"method": "POST",
				"header": [
					{
						"key": "Content-Type",
						"value": "application/json"
					},
					{
						"key": "Accept",
						"value": "application/json"
					}
				],
				"body": {
					"mode": "raw",
					"raw": "{\n  \"networkutils:input\": {\n    \"networkutils:links-input\": {\n      \"networkutils:xpdr-node\": \"XPDR-A1\",\n      \"networkutils:xpdr-num\": \"1\",\n      \"networkutils:network-num\": \"1\",\n      \"networkutils:rdm-node\": \"ROADM-A1\",\n      \"networkutils:srg-num\": \"1\",\n      \"networkutils:termination-point-num\": \"SRG1-PP1-TXRX\"\n    }\n  }\n}"
				},
				"url": {
					"raw": "http://localhost:8181/restconf/operations/transportpce-networkutils:init-xpdr-rdm-links",
					"protocol": "http",
					"host": [
						"localhost"
					],
					"port": "8181",
					"path": [
						"restconf",
						"operations",
						"transportpce-networkutils:init-xpdr-rdm-links"
					]
				}
			},
			"response": []
		},
		{
			"name": "MUX-SPDRA to ROADMA1",
			"request": {
				"auth": {
					"type": "basic",
					"basic": [
						{
							"key": "password",
							"value": "admin",
							"type": "string"
						},
						{
							"key": "username",
							"value": "admin",
							"type": "string"
						}
					]
				},
				"method": "POST",
				"header": [
					{
						"key": "Content-Type",
						"value": "application/json"
					},
					{
						"key": "Accept",
						"value": "application/json"
					}
				],
				"body": {
					"mode": "raw",
					"raw": "{\n  \"networkutils:input\": {\n    \"networkutils:links-input\": {\n      \"networkutils:xpdr-node\": \"SPDRA-SA1\",\n      \"networkutils:xpdr-num\": \"1\",\n      \"networkutils:network-num\": \"1\",\n      \"networkutils:rdm-node\": \"ROADM-A1\",\n      \"networkutils:srg-num\": \"1\",\n      \"networkutils:termination-point-num\": \"SRG1-PP2-TXRX\"\n    }\n  }\n}"
				},
				"url": {
					"raw": "http://localhost:8181/restconf/operations/transportpce-networkutils:init-xpdr-rdm-links",
					"protocol": "http",
					"host": [
						"localhost"
					],
					"port": "8181",
					"path": [
						"restconf",
						"operations",
						"transportpce-networkutils:init-xpdr-rdm-links"
					]
				}
			},
			"response": []
		},
		{
			"name": "MUX-ROADMA1 to SPDRA",
			"request": {
				"auth": {
					"type": "basic",
					"basic": [
						{
							"key": "password",
							"value": "admin",
							"type": "string"
						},
						{
							"key": "username",
							"value": "admin",
							"type": "string"
						}
					]
				},
				"method": "POST",
				"header": [
					{
						"key": "Content-Type",
						"value": "application/json"
					},
					{
						"key": "Accept",
						"value": "application/json"
					}
				],
				"body": {
					"mode": "raw",
					"raw": "{\n  \"networkutils:input\": {\n    \"networkutils:links-input\": {\n      \"networkutils:xpdr-node\": \"ROADM-A1\",\n      \"networkutils:xpdr-num\": \"1\",\n      \"networkutils:network-num\": \"1\",\n      \"networkutils:rdm-node\": \"SPDRA-SA1\",\n      \"networkutils:srg-num\": \"1\",\n      \"networkutils:termination-point-num\": \"SRG1-PP2-TXRX\"\n    }\n  }\n}"
				},
				"url": {
					"raw": "http://localhost:8181/restconf/operations/transportpce-networkutils:init-xpdr-rdm-links",
					"protocol": "http",
					"host": [
						"localhost"
					],
					"port": "8181",
					"path": [
						"restconf",
						"operations",
						"transportpce-networkutils:init-xpdr-rdm-links"
					]
				}
			},
			"response": []
		},
		{
			"name": "MUX-SPDRC to ROADM-C1",
			"request": {
				"auth": {
					"type": "basic",
					"basic": [
						{
							"key": "password",
							"value": "admin",
							"type": "string"
						},
						{
							"key": "username",
							"value": "admin",
							"type": "string"
						}
					]
				},
				"method": "POST",
				"header": [
					{
						"key": "Content-Type",
						"value": "application/json"
					},
					{
						"key": "Accept",
						"value": "application/json"
					}
				],
				"body": {
					"mode": "raw",
					"raw": "{\n  \"networkutils:input\": {\n    \"networkutils:links-input\": {\n      \"networkutils:xpdr-node\": \"SPDRC-SC1\",\n      \"networkutils:xpdr-num\": \"1\",\n      \"networkutils:network-num\": \"1\",\n      \"networkutils:rdm-node\": \"ROADM-C1\",\n      \"networkutils:srg-num\": \"1\",\n      \"networkutils:termination-point-num\": \"SRG1-PP2-TXRX\"\n    }\n  }\n}"
				},
				"url": {
					"raw": "http://localhost:8181/restconf/operations/transportpce-networkutils:init-xpdr-rdm-links",
					"protocol": "http",
					"host": [
						"localhost"
					],
					"port": "8181",
					"path": [
						"restconf",
						"operations",
						"transportpce-networkutils:init-xpdr-rdm-links"
					]
				}
			},
			"response": []
		},
		{
			"name": "MUX-ROADMC1 to SPDRC",
			"request": {
				"auth": {
					"type": "basic",
					"basic": [
						{
							"key": "password",
							"value": "admin",
							"type": "string"
						},
						{
							"key": "username",
							"value": "admin",
							"type": "string"
						}
					]
				},
				"method": "POST",
				"header": [
					{
						"key": "Content-Type",
						"value": "application/json"
					},
					{
						"key": "Accept",
						"value": "application/json"
					}
				],
				"body": {
					"mode": "raw",
					"raw": "{\n  \"networkutils:input\": {\n    \"networkutils:links-input\": {\n      \"networkutils:xpdr-node\": \"ROADM-C1\",\n      \"networkutils:xpdr-num\": \"1\",\n      \"networkutils:network-num\": \"1\",\n      \"networkutils:rdm-node\": \"SPDRC-SC1\",\n      \"networkutils:srg-num\": \"1\",\n      \"networkutils:termination-point-num\": \"SRG1-PP2-TXRX\"\n    }\n  }\n}"
				},
				"url": {
					"raw": "http://localhost:8181/restconf/operations/transportpce-networkutils:init-xpdr-rdm-links",
					"protocol": "http",
					"host": [
						"localhost"
					],
					"port": "8181",
					"path": [
						"restconf",
						"operations",
						"transportpce-networkutils:init-xpdr-rdm-links"
					]
				}
			},
			"response": []
		},
		{
			"name": "SWITCH-SPDRA to ROADMA1",
			"request": {
				"auth": {
					"type": "basic",
					"basic": [
						{
							"key": "password",
							"value": "admin",
							"type": "string"
						},
						{
							"key": "username",
							"value": "admin",
							"type": "string"
						}
					]
				},
				"method": "POST",
				"header": [
					{
						"key": "Content-Type",
						"value": "application/json"
					},
					{
						"key": "Accept",
						"value": "application/json"
					}
				],
				"body": {
					"mode": "raw",
					"raw": "{\n  \"networkutils:input\": {\n    \"networkutils:links-input\": {\n      \"networkutils:xpdr-node\": \"SPDRA-SA1\",\n      \"networkutils:xpdr-num\": \"2\",\n      \"networkutils:network-num\": \"1\",\n      \"networkutils:rdm-node\": \"ROADM-A1\",\n      \"networkutils:srg-num\": \"1\",\n      \"networkutils:termination-point-num\": \"SRG1-PP3-TXRX\"\n    }\n  }\n}"
				},
				"url": {
					"raw": "http://localhost:8181/restconf/operations/transportpce-networkutils:init-xpdr-rdm-links",
					"protocol": "http",
					"host": [
						"localhost"
					],
					"port": "8181",
					"path": [
						"restconf",
						"operations",
						"transportpce-networkutils:init-xpdr-rdm-links"
					]
				}
			},
			"response": []
		},
		{
			"name": "SWITCH-ROADMA1 to SPDRA",
			"request": {
				"auth": {
					"type": "basic",
					"basic": [
						{
							"key": "password",
							"value": "admin",
							"type": "string"
						},
						{
							"key": "username",
							"value": "admin",
							"type": "string"
						}
					]
				},
				"method": "POST",
				"header": [
					{
						"key": "Content-Type",
						"value": "application/json"
					},
					{
						"key": "Accept",
						"value": "application/json"
					}
				],
				"body": {
					"mode": "raw",
					"raw": "{\n  \"networkutils:input\": {\n    \"networkutils:links-input\": {\n      \"networkutils:xpdr-node\": \"ROADM-A1\",\n      \"networkutils:xpdr-num\": \"2\",\n      \"networkutils:network-num\": \"1\",\n      \"networkutils:rdm-node\": \"SPDRA-SA1\",\n      \"networkutils:srg-num\": \"1\",\n      \"networkutils:termination-point-num\": \"SRG1-PP3-TXRX\"\n    }\n  }\n}"
				},
				"url": {
					"raw": "http://localhost:8181/restconf/operations/transportpce-networkutils:init-xpdr-rdm-links",
					"protocol": "http",
					"host": [
						"localhost"
					],
					"port": "8181",
					"path": [
						"restconf",
						"operations",
						"transportpce-networkutils:init-xpdr-rdm-links"
					]
				}
			},
			"response": []
		},
		{
			"name": "SWITCH-SPDRC to ROADM-C1",
			"request": {
				"auth": {
					"type": "basic",
					"basic": [
						{
							"key": "password",
							"value": "admin",
							"type": "string"
						},
						{
							"key": "username",
							"value": "admin",
							"type": "string"
						}
					]
				},
				"method": "POST",
				"header": [
					{
						"key": "Content-Type",
						"value": "application/json"
					},
					{
						"key": "Accept",
						"value": "application/json"
					}
				],
				"body": {
					"mode": "raw",
					"raw": "{\n  \"networkutils:input\": {\n    \"networkutils:links-input\": {\n      \"networkutils:xpdr-node\": \"SPDRC-SC1\",\n      \"networkutils:xpdr-num\": \"2\",\n      \"networkutils:network-num\": \"1\",\n      \"networkutils:rdm-node\": \"ROADM-C1\",\n      \"networkutils:srg-num\": \"1\",\n      \"networkutils:termination-point-num\": \"SRG1-PP3-TXRX\"\n    }\n  }\n}"
				},
				"url": {
					"raw": "http://localhost:8181/restconf/operations/transportpce-networkutils:init-xpdr-rdm-links",
					"protocol": "http",
					"host": [
						"localhost"
					],
					"port": "8181",
					"path": [
						"restconf",
						"operations",
						"transportpce-networkutils:init-xpdr-rdm-links"
					]
				}
			},
			"response": []
		},
		{
			"name": "SWITCH-ROADM-C1  to SPDRC",
			"request": {
				"auth": {
					"type": "basic",
					"basic": [
						{
							"key": "password",
							"value": "admin",
							"type": "string"
						},
						{
							"key": "username",
							"value": "admin",
							"type": "string"
						}
					]
				},
				"method": "POST",
				"header": [
					{
						"key": "Content-Type",
						"value": "application/json"
					},
					{
						"key": "Accept",
						"value": "application/json"
					}
				],
				"body": {
					"mode": "raw",
					"raw": "{\n  \"networkutils:input\": {\n    \"networkutils:links-input\": {\n      \"networkutils:xpdr-node\": \"ROADM-C1\",\n      \"networkutils:xpdr-num\": \"2\",\n      \"networkutils:network-num\": \"1\",\n      \"networkutils:rdm-node\": \"SPDRC-SC1\",\n      \"networkutils:srg-num\": \"1\",\n      \"networkutils:termination-point-num\": \"SRG1-PP3-TXRX\"\n    }\n  }\n}"
				},
				"url": {
					"raw": "http://localhost:8181/restconf/operations/transportpce-networkutils:init-xpdr-rdm-links",
					"protocol": "http",
					"host": [
						"localhost"
					],
					"port": "8181",
					"path": [
						"restconf",
						"operations",
						"transportpce-networkutils:init-xpdr-rdm-links"
					]
				}
			},
			"response": []
		},
		{
			"name": "ROADMA1 to XPDRA01",
			"request": {
				"auth": {
					"type": "basic",
					"basic": [
						{
							"key": "password",
							"value": "admin",
							"type": "string"
						},
						{
							"key": "username",
							"value": "admin",
							"type": "string"
						}
					]
				},
				"method": "POST",
				"header": [
					{
						"key": "Content-Type",
						"value": "application/json"
					},
					{
						"key": "Accept",
						"value": "application/json"
					}
				],
				"body": {
					"mode": "raw",
					"raw": "{\n  \"networkutils:input\": {\n    \"networkutils:links-input\": {\n      \"networkutils:xpdr-node\": \"ROADM-A1\",\n      \"networkutils:xpdr-num\": \"1\",\n      \"networkutils:network-num\": \"1\",\n      \"networkutils:rdm-node\": \"XPDR-A1\",\n      \"networkutils:srg-num\": \"1\",\n      \"networkutils:termination-point-num\": \"SRG1-PP1-TXRX\"\n    }\n  }\n}"
				},
				"url": {
					"raw": "http://localhost:8181/restconf/operations/transportpce-networkutils:init-rdm-xpdr-links",
					"protocol": "http",
					"host": [
						"localhost"
					],
					"port": "8181",
					"path": [
						"restconf",
						"operations",
						"transportpce-networkutils:init-rdm-xpdr-links"
					]
				}
			},
			"response": []
		}
	],
	"protocolProfileBehavior": {}
}